{
  "presets": [
    [
      "@babel/env",
      {
        "targets": {
          "edge": "17",
          "firefox": "60",
          "chrome": "67",
          "safari": "11.1",
          "ie": "8"
        },
        "useBuiltIns": "usage"
      }
    ]
  ]
} 
